{
   "showMOMaintenancePage" : "false",
	"iFast": {
		"showMaintenancePage": false,
		"maintenanceStartTime": "2023-05-30T16:25:00.000+08:00",
		"maintenanceEndTime": "2023-05-30T16:35:00.000+08:00"
	},
	"android": {
		"version": "1.2.0",
		"build": 6
	},
	"ios": {
		"version": "1.2.0",
		"build": 2
	}
}
